1, "Food", "Dog Food", "High Quality Dog Food", 15.99M, 35
2, "Accessory", "Cat Collar", "Cat Colar with bell", 15.99M, 35
3, "Cage", "Parrot Cage", "Parrot Cage with bell", 15.99M, 35
4, "Aquarium", "50-gallon Fish Tank", "Fish Tank with Stand", 15.99M, 35
5, "Toy", "Hedgehog Wheel", "Exercise Wheel", 15.99M, 35,
6, "Accessory", "Dog Collar", "Dog Collar for Large Dogs", 15.99M, 35
7, "Accessory", "Dog Collar", "Dog Collar for Small Dogs", 9.99M, 15
8, "Accessory", "Dog Leash", "10 Foot Leather Leash", 15.99M, 35
9, "Toy", "Dog Toy Box", "Large Collapsible box for toy storage", 16.99M, 12
10, "Accessory", "Dog Seat", "Scratch Prevention Car Seat cover", 29.99M, 68
11, "Accessory", "Cat GPS Tracker", "Waterproof GPS Pet Tracker", 49.99M, 24
12, "Toy", "Bird Cage Toy", "Colorful Chew Toy with cotton rope", 13.99M, 8
13, "Toy", "Parrot Swing", "15 PC Wooden Hanging Bell with Hammock", 23.99M, 18
14, "Aquarium", "Aquarium Filter", "3-Stage Internal Fish Tank Filter", 18.99M, 32
15, "Accessory", "Indoor Cat Tent", "Play Tent for Indoor Cats", 69.97", 6
16, "Food", "Cat Food", "For Cats with Allergies", 15.99M, 22




		